descript_stats_plots.utf8
…
# for days to close calculation:

nyc_plots %>%
    filter(status == "Closed") %>% 
    mutate(closed_year = as.numeric(closed_year),
        closed_month = as.numeric(closed_month),
        closed_day = as.numeric(closed_day)) %>% 
    filter(closed_year != 2047) %>% 
    mutate(diff_year = abs(closed_year - created_year),
        diff_month = abs(closed_month - created_month),
        diff_day = abs(closed_day - created_day),
        diff_dayt = abs(diff_year*365 + diff_month*30 + diff_day))

## # A tibble: 479,689 x 30
##    created_month created_day created_year created_time closed_month
##            <dbl>       <dbl>        <dbl> <time>              <dbl>
##  1             6          18         2016 06:42:00                6
##  2            10          18         2017 04:15:02               10
##  3            11           7         2018 07:39:00               11
##  4            10           3         2015 11:28:42               10
##  5            11          27         2015 10:58:11               11
##  6             4          10         2014 12:00:00                4
##  7             8          30         2016 11:06:20                9
##  8            11           1         2014 02:41:40               11
##  9             3           8         2016 10:06:05                3
## 10             5          14         2016 08:36:23                5
## # … with 479,679 more rows, and 25 more variables: closed_day <dbl>,
## #   closed_year <dbl>, closed_time <chr>, complaint_type <fct>,
## #   status <fct>, due_date <chr>, community_board <chr>, borough <fct>,
## #   open_complaint <dbl>, complaint_simp <fct>, health_complaint <dbl>,
## #   open_health_complaint <dbl>, area_name <chr>, median_income <dbl>,
## #   per_black_nh <dbl>, per_white_nh <dbl>, per_hisp <dbl>,
## #   per_other <dbl>, total_population <dbl>, inc_1000s <dbl>,
## #   income_bracket <fct>, diff_year <dbl>, diff_month <dbl>,
## #   diff_day <dbl>, diff_dayt <dbl>
…
